[
  {
    "Sorting ID": 1,
    "Ticket ID": "",
    "Ticket Type": "GA",
    "Ticket Name": "2 DAY TICKET",
    "Ticket Description": "Exclusive DBS Live Fresh cardmembers sale. General admission, free standing Fri-Sat, 15-16 June 2018",
    "Availability": "Singapore",
    "More info": "",
    "Normal Price Front End": "$255.00",
    "Private Sale Front End": "$125.00",
    "Private Sale": "$133.00",
    "Saving 1": "$137.00",
    "Start Date 1": "2/9/2018 0:00:01",
    "End Date 1": "2/15/2018 23:59:59",
    "Early Bird 1 Front End": "",
    "Early Bird 1": "",
    "Saving 2": "",
    "Start Date 2": "",
    "End Date 2": "",
    "Early Bird 2 Front End": "",
    "Early Bird 2": "",
    "Saving 3": "",
    "Start Date 3": "",
    "End Date 3": "",
    "Advance 1 Front End": "",
    "Advance 1": "",
    "Saving 4": "",
    "Start Date 4": "",
    "End Date 4": "",
    "Advance 2 Front End": "",
    "Advance 2": "",
    "Saving 5": "",
    "Start Date 5": "",
    "End Date 5": "",
    "Pre Door Front End": "",
    "Pre Door": "",
    "Saving 6": "",
    "Start Date 6": "",
    "End Date 6": "",
    "Door": "",
    "Saving 7": "",
    "Start Date 7": "",
    "End Date 7": "",
    "Ticketserv URL": "http://redtix-tickets.airasia.com/sgp/en-AU/shows/ultra singapore 2018 ga 2 day combo dbs live fresh/events"
  },
  {
    "Sorting ID": 2,
    "Ticket ID": "",
    "Ticket Type": "GA",
    "Ticket Name": "2 DAY TICKET",
    "Ticket Description": "Exclusive DBS cardmembers sale. General admission, free standing Fri-Sat, 15-16 June 2018",
    "Availability": "Singapore",
    "More info": "",
    "Normal Price Front End": "$255.00",
    "Private Sale Front End": "$140.00",
    "Private Sale": "$149.00",
    "Saving 1": "$121.00",
    "Start Date 1": "2/9/2018 0:00:01",
    "End Date 1": "2/15/2018 23:59:59",
    "Early Bird 1 Front End": "",
    "Early Bird 1": "",
    "Saving 2": "",
    "Start Date 2": "",
    "End Date 2": "",
    "Early Bird 2 Front End": "",
    "Early Bird 2": "",
    "Saving 3": "",
    "Start Date 3": "",
    "End Date 3": "",
    "Advance 1 Front End": "",
    "Advance 1": "",
    "Saving 4": "",
    "Start Date 4": "",
    "End Date 4": "",
    "Advance 2 Front End": "",
    "Advance 2": "",
    "Saving 5": "",
    "Start Date 5": "",
    "End Date 5": "",
    "Pre Door Front End": "",
    "Pre Door": "",
    "Saving 6": "",
    "Start Date 6": "",
    "End Date 6": "",
    "Door": "",
    "Saving 7": "",
    "Start Date 7": "",
    "End Date 7": "",
    "Ticketserv URL": "http://redtix-tickets.airasia.com/sgp/en-AU/shows/ultra singapore 2018 ga 2 day combo dbs/events"
  },
  {
    "Sorting ID": 3,
    "Ticket ID": "",
    "Ticket Type": "GA",
    "Ticket Name": "2 DAY TICKET",
    "Ticket Description": "Exclusive for POSB cardmembers. General admission, free standing Fri-Sat, 15-16 June 2018",
    "Availability": "Singapore",
    "More info": "",
    "Normal Price Front End": "$255.00",
    "Private Sale Front End": "$140.00",
    "Private Sale": "$149.00",
    "Saving 1": "-$149.00",
    "Start Date 1": "2/9/2018 0:00:01",
    "End Date 1": "2/15/2018 23:59:59",
    "Early Bird 1 Front End": "",
    "Early Bird 1": "",
    "Saving 2": "",
    "Start Date 2": "",
    "End Date 2": "",
    "Early Bird 2 Front End": "",
    "Early Bird 2": "",
    "Saving 3": "",
    "Start Date 3": "",
    "End Date 3": "",
    "Advance 1 Front End": "",
    "Advance 1": "",
    "Saving 4": "",
    "Start Date 4": "",
    "End Date 4": "",
    "Advance 2 Front End": "",
    "Advance 2": "",
    "Saving 5": "",
    "Start Date 5": "",
    "End Date 5": "",
    "Pre Door Front End": "",
    "Pre Door": "",
    "Saving 6": "",
    "Start Date 6": "",
    "End Date 6": "",
    "Door": "",
    "Saving 7": "",
    "Start Date 7": "",
    "End Date 7": "",
    "Ticketserv URL": "https://redtix-tickets.airasia.com/sgp/en-AU/shows/ultra singapore 2018 ga 2 day combo posb/events"
  },
  {
    "Sorting ID": 4,
    "Ticket ID": "",
    "Ticket Type": "PGA",
    "Ticket Name": "PREMIUM 2 DAY TICKET",
    "Ticket Description": "Exclusive DBS Live Fresh cardmembers sale. Premium admission, free standing Fri-Sat, 15-16 June 2018",
    "Availability": "Singapore",
    "More info": "Premium Tickets get:\nDedicated express entry lanes at Venue\nAccess to dedicated Premium General Admission Area\nAccess to private Premium General Admission Bar\nUsage of dedicated Premium General Admission RFID Top-Up Station",
    "Normal Price Front End": "$315.00",
    "Private Sale Front End": "$155.00",
    "Private Sale": "$165.00",
    "Saving 1": "$168.00",
    "Start Date 1": "2/9/2018 0:00:01",
    "End Date 1": "2/15/2018 23:59:59",
    "Early Bird 1 Front End": "",
    "Early Bird 1": "",
    "Saving 2": "",
    "Start Date 2": "",
    "End Date 2": "",
    "Early Bird 2 Front End": "",
    "Early Bird 2": "",
    "Saving 3": "",
    "Start Date 3": "",
    "End Date 3": "",
    "Advance 1 Front End": "",
    "Advance 1": "",
    "Saving 4": "",
    "Start Date 4": "",
    "End Date 4": "",
    "Advance 2 Front End": "",
    "Advance 2": "",
    "Saving 5": "",
    "Start Date 5": "",
    "End Date 5": "",
    "Pre Door Front End": "",
    "Pre Door": "",
    "Saving 6": "",
    "Start Date 6": "",
    "End Date 6": "",
    "Door": "",
    "Saving 7": "",
    "Start Date 7": "",
    "End Date 7": "",
    "Ticketserv URL": "https://redtix-tickets.airasia.com/sgp/en-AU/shows/ultra singapore 2018 pga 2 day combo dbs live fresh/events"
  },
  {
    "Sorting ID": 5,
    "Ticket ID": "",
    "Ticket Type": "PGA",
    "Ticket Name": "PREMIUM 2 DAY TICKET",
    "Ticket Description": "Exclusive DBS cardmembers sale. Premium admission, free standing Fri-Sat, 15-16 June 2018",
    "Availability": "Singapore",
    "More info": "Premium Tickets get:\nDedicated express entry lanes at Venue\nAccess to dedicated Premium General Admission Area\nAccess to private Premium General Admission Bar\nUsage of dedicated Premium General Admission RFID Top-Up Station",
    "Normal Price Front End": "$315.00",
    "Private Sale Front End": "$170.00",
    "Private Sale": "$180.00",
    "Saving 1": "$153.00",
    "Start Date 1": "2/9/2018 0:00:01",
    "End Date 1": "2/15/2018 23:59:59",
    "Early Bird 1 Front End": "",
    "Early Bird 1": "",
    "Saving 2": "",
    "Start Date 2": "",
    "End Date 2": "",
    "Early Bird 2 Front End": "",
    "Early Bird 2": "",
    "Saving 3": "",
    "Start Date 3": "",
    "End Date 3": "",
    "Advance 1 Front End": "",
    "Advance 1": "",
    "Saving 4": "",
    "Start Date 4": "",
    "End Date 4": "",
    "Advance 2 Front End": "",
    "Advance 2": "",
    "Saving 5": "",
    "Start Date 5": "",
    "End Date 5": "",
    "Pre Door Front End": "",
    "Pre Door": "",
    "Saving 6": "",
    "Start Date 6": "",
    "End Date 6": "",
    "Door": "",
    "Saving 7": "",
    "Start Date 7": "",
    "End Date 7": "",
    "Ticketserv URL": "https://redtix-tickets.airasia.com/sgp/en-AU/shows/ultra singapore 2018 pga 2 day combo dbs/events"
  },
  {
    "Sorting ID": 6,
    "Ticket ID": "",
    "Ticket Type": "PGA",
    "Ticket Name": "PREMIUM 2 DAY TICKET",
    "Ticket Description": "Exclusive POSB cardmembers sale. Premium admission, free standing Fri-Sat, 15-16 June 2018",
    "Availability": "Singapore",
    "More info": "Premium Tickets get:\nDedicated express entry lanes at Venue\nAccess to dedicated Premium General Admission Area\nAccess to private Premium General Admission Bar\nUsage of dedicated Premium General Admission RFID Top-Up Station",
    "Normal Price Front End": "$315.00",
    "Private Sale Front End": "$155.00",
    "Private Sale": "$165.00",
    "Saving 1": "$168.00",
    "Start Date 1": "2/9/2018 0:00:01",
    "End Date 1": "2/15/2018 23:59:59",
    "Early Bird 1 Front End": "",
    "Early Bird 1": "",
    "Saving 2": "",
    "Start Date 2": "",
    "End Date 2": "",
    "Early Bird 2 Front End": "",
    "Early Bird 2": "",
    "Saving 3": "",
    "Start Date 3": "",
    "End Date 3": "",
    "Advance 1 Front End": "",
    "Advance 1": "",
    "Saving 4": "",
    "Start Date 4": "",
    "End Date 4": "",
    "Advance 2 Front End": "",
    "Advance 2": "",
    "Saving 5": "",
    "Start Date 5": "",
    "End Date 5": "",
    "Pre Door Front End": "",
    "Pre Door": "",
    "Saving 6": "",
    "Start Date 6": "",
    "End Date 6": "",
    "Door": "",
    "Saving 7": "",
    "Start Date 7": "",
    "End Date 7": "",
    "Ticketserv URL": "https://redtix-tickets.airasia.com/sgp/en-AU/shows/ultra singapore 2018 pga 2 day combo posb/events"
  },
  {
    "Sorting ID": 7,
    "Ticket ID": "",
    "Ticket Type": "PGA",
    "Ticket Name": "PREMIUM 2 DAY TICKET",
    "Ticket Description": "Premium admission, free standing Fri-Sat, 15-16 June 2018",
    "Availability": "International & Singapore",
    "More info": "Premium Tickets get:\nDedicated express entry lanes at Venue\nAccess to dedicated Premium General Admission Area\nAccess to private Premium General Admission Bar\nUsage of dedicated Premium General Admission RFID Top-Up Station",
    "Normal Price Front End": "$315.00",
    "Private Sale Front End": "$170.00",
    "Private Sale": "$180.00",
    "Saving 1": "$153.00",
    "Start Date 1": "2/9/2018 0:00:01",
    "End Date 1": "2/15/2018 23:59:59",
    "Early Bird 1 Front End": "$185.00",
    "Early Bird 1": "$196.00",
    "Saving 2": "$137.00",
    "Start Date 2": "2/16/2018 0:00:00",
    "End Date 2": "3/7/2018 23:59:00",
    "Early Bird 2 Front End": "$210.00",
    "Early Bird 2": "$222.00",
    "Saving 3": "$111.00",
    "Start Date 3": "3/8/2018 0:00:00",
    "End Date 3": "4/1/2018 23:59:00",
    "Advance 1 Front End": "$245.00",
    "Advance 1": "$259.00",
    "Saving 4": "$74.00",
    "Start Date 4": "4/2/2018 0:00:00",
    "End Date 4": "5/2/2018 23:59:00",
    "Advance 2 Front End": "$280.00",
    "Advance 2": "$296.00",
    "Saving 5": "$37.00",
    "Start Date 5": "5/3/2018 0:00:00",
    "End Date 5": "5/23/2018 23:59:00",
    "Pre Door Front End": "$315.00",
    "Pre Door": "$333.00",
    "Saving 6": "$0.00",
    "Start Date 6": "5/24/2018 0:00:00",
    "End Date 6": "6/13/2018 23:59:00",
    "Door": "",
    "Saving 7": "",
    "Start Date 7": "",
    "End Date 7": "",
    "Ticketserv URL": "https://redtix-tickets.airasia.com/sgp/en-AU/shows/ultra singapore 2018 pga 2 day combo/events"
  },
  {
    "Sorting ID": 8,
    "Ticket ID": "",
    "Ticket Type": "GA",
    "Ticket Name": "2 DAY TICKET",
    "Ticket Description": "General admission, free standing Fri-Sat, 15-16 June 2018",
    "Availability": "International & Singapore",
    "More info": "",
    "Normal Price Front End": "$255.00",
    "Private Sale Front End": "$140.00",
    "Private Sale": "$149.00",
    "Saving 1": "$121.00",
    "Start Date 1": "2/9/2018 0:00:01",
    "End Date 1": "2/15/2018 23:59:59",
    "Early Bird 1 Front End": "$155.00",
    "Early Bird 1": "$165.00",
    "Saving 2": "$105.00",
    "Start Date 2": "2/16/2018 0:00:00",
    "End Date 2": "3/7/2018 23:59:00",
    "Early Bird 2 Front End": "$170.00",
    "Early Bird 2": "$180.00",
    "Saving 3": "$90.00",
    "Start Date 3": "3/8/2018 0:00:00",
    "End Date 3": "4/1/2018 23:59:00",
    "Advance 1 Front End": "$185.00",
    "Advance 1": "$196.00",
    "Saving 4": "$74.00",
    "Start Date 4": "4/2/2018 0:00:00",
    "End Date 4": "5/2/2018 23:59:00",
    "Advance 2 Front End": "$205.00",
    "Advance 2": "$217.00",
    "Saving 5": "$53.00",
    "Start Date 5": "5/3/2018 0:00:00",
    "End Date 5": "5/23/2018 23:59:00",
    "Pre Door Front End": "$225.00",
    "Pre Door": "$238.00",
    "Saving 6": "$32.00",
    "Start Date 6": "5/24/2018 0:00:00",
    "End Date 6": "6/13/2018 23:59:00",
    "Door": "$270.00",
    "Saving 7": "",
    "Start Date 7": "",
    "End Date 7": "",
    "Ticketserv URL": "http://redtix-tickets.airasia.com/sgp/en-AU/shows/ultra singapore 2018 2 days combo/events"
  },
  {
    "Sorting ID": 9,
    "Ticket ID": "",
    "Ticket Type": "GA",
    "Ticket Name": "1 DAY TICKET FRIDAY ONLY",
    "Ticket Description": "General admission, free standing Friday, 15 June 2018",
    "Availability": "International & Singapore",
    "More info": "",
    "Normal Price Front End": "$150.00",
    "Private Sale Front End": "",
    "Private Sale": "",
    "Saving 1": "",
    "Start Date 1": "",
    "End Date 1": "",
    "Early Bird 1 Front End": "",
    "Early Bird 1": "",
    "Saving 2": "",
    "Start Date 2": "",
    "End Date 2": "",
    "Early Bird 2 Front End": "",
    "Early Bird 2": "",
    "Saving 3": "",
    "Start Date 3": "",
    "End Date 3": "",
    "Advance 1 Front End": "$120.00",
    "Advance 1": "$128.00",
    "Saving 4": "$31.00",
    "Start Date 4": "4/2/2018 0:00:00",
    "End Date 4": "5/2/2018 23:59:00",
    "Advance 2 Front End": "$135.00",
    "Advance 2": "$144.00",
    "Saving 5": "$15.00",
    "Start Date 5": "5/3/2018 0:00:00",
    "End Date 5": "5/23/2018 23:59:00",
    "Pre Door Front End": "$150.00",
    "Pre Door": "$159.00",
    "Saving 6": "$0.00",
    "Start Date 6": "5/24/2018 0:00:00",
    "End Date 6": "6/13/2018 23:59:00",
    "Door": "",
    "Saving 7": "",
    "Start Date 7": "",
    "End Date 7": "",
    "Ticketserv URL": "http://redtix-tickets.airasia.com/sgp/en-AU/shows/ultra singapore 2018 day 1/events"
  },
  {
    "Sorting ID": 10,
    "Ticket ID": "",
    "Ticket Type": "GA",
    "Ticket Name": "1 DAY TICKET SATURDAY ONLY",
    "Ticket Description": "General admission, free standing Saturday, 16 June 2018",
    "Availability": "International & Singapore",
    "More info": "",
    "Normal Price Front End": "$150.00",
    "Private Sale Front End": "",
    "Private Sale": "",
    "Saving 1": "",
    "Start Date 1": "",
    "End Date 1": "",
    "Early Bird 1 Front End": "",
    "Early Bird 1": "",
    "Saving 2": "",
    "Start Date 2": "",
    "End Date 2": "",
    "Early Bird 2 Front End": "",
    "Early Bird 2": "",
    "Saving 3": "",
    "Start Date 3": "",
    "End Date 3": "",
    "Advance 1 Front End": "$120.00",
    "Advance 1": "$128.00",
    "Saving 4": "$31.00",
    "Start Date 4": "4/2/2018 0:00:00",
    "End Date 4": "5/2/2018 23:59:00",
    "Advance 2 Front End": "$135.00",
    "Advance 2": "$144.00",
    "Saving 5": "$15.00",
    "Start Date 5": "5/3/2018 0:00:00",
    "End Date 5": "5/23/2018 23:59:00",
    "Pre Door Front End": "$150.00",
    "Pre Door": "$159.00",
    "Saving 6": "$0.00",
    "Start Date 6": "5/24/2018 0:00:00",
    "End Date 6": "6/13/2018 23:59:00",
    "Door": "",
    "Saving 7": "",
    "Start Date 7": "",
    "End Date 7": "",
    "Ticketserv URL": "http://redtix-tickets.airasia.com/sgp/en-AU/shows/ultra singapore 2018 day 2/events"
  }
]